https:// math24 .biz 1 18.70 
https://www. youtube .com 2 18.70 
https://www. michurin .net 3 18.70 
https://www. google .com 4 18.70 
https:// pastebin .com 5 18.70 
fdhf hkdjf dfgj 6 765.00 
https:// stackoverflow .com 7 18.70 
